<?xml version="1.0" encoding="UTF-8" standalone="no"?>
<!DOCTYPE svg PUBLIC "-//W3C//DTD SVG 1.1//EN"
 "http://www.w3.org/Graphics/SVG/1.1/DTD/svg11.dtd">
<!-- Generated by graphviz version 2.38.0 (20140413.2041)
 -->
<!-- Title: G Pages: 1 -->
<svg width="786pt" height="2132pt"
 viewBox="0.00 0.00 785.96 2132.00" xmlns="http://www.w3.org/2000/svg" xmlns:xlink="http://www.w3.org/1999/xlink">
<g id="graph0" class="graph" transform="scale(1 1) rotate(0) translate(4 2128)">
<title>G</title>
<polygon fill="white" stroke="none" points="-4,4 -4,-2128 781.956,-2128 781.956,4 -4,4"/>
<g id="clust1" class="cluster"><title>cluster_Global</title>
<path fill="none" stroke="gray" d="M545.956,-8C545.956,-8 757.956,-8 757.956,-8 763.956,-8 769.956,-14 769.956,-20 769.956,-20 769.956,-2104 769.956,-2104 769.956,-2110 763.956,-2116 757.956,-2116 757.956,-2116 545.956,-2116 545.956,-2116 539.956,-2116 533.956,-2110 533.956,-2104 533.956,-2104 533.956,-20 533.956,-20 533.956,-14 539.956,-8 545.956,-8"/>
<text text-anchor="middle" x="651.956" y="-2103.2" font-family="Times,serif" font-size="11.00" fill="gray">Global</text>
</g>
<g id="clust2" class="cluster"><title>cluster_\AppBundle</title>
<path fill="none" stroke="gray" d="M553.956,-168C553.956,-168 749.956,-168 749.956,-168 755.956,-168 761.956,-174 761.956,-180 761.956,-180 761.956,-2076 761.956,-2076 761.956,-2082 755.956,-2088 749.956,-2088 749.956,-2088 553.956,-2088 553.956,-2088 547.956,-2088 541.956,-2082 541.956,-2076 541.956,-2076 541.956,-180 541.956,-180 541.956,-174 547.956,-168 553.956,-168"/>
<text text-anchor="middle" x="651.956" y="-2075.2" font-family="Times,serif" font-size="11.00" fill="gray">AppBundle</text>
</g>
<g id="clust3" class="cluster"><title>cluster_\AppBundle\Entity</title>
<path fill="none" stroke="gray" d="M620.456,-1772C620.456,-1772 683.456,-1772 683.456,-1772 689.456,-1772 695.456,-1778 695.456,-1784 695.456,-1784 695.456,-2048 695.456,-2048 695.456,-2054 689.456,-2060 683.456,-2060 683.456,-2060 620.456,-2060 620.456,-2060 614.456,-2060 608.456,-2054 608.456,-2048 608.456,-2048 608.456,-1784 608.456,-1784 608.456,-1778 614.456,-1772 620.456,-1772"/>
<text text-anchor="middle" x="651.956" y="-2047.2" font-family="Times,serif" font-size="11.00" fill="gray">Entity</text>
</g>
<g id="clust4" class="cluster"><title>cluster_\AppBundle\DependencyInjection</title>
<path fill="none" stroke="gray" d="M603.956,-1638C603.956,-1638 699.956,-1638 699.956,-1638 705.956,-1638 711.956,-1644 711.956,-1650 711.956,-1650 711.956,-1752 711.956,-1752 711.956,-1758 705.956,-1764 699.956,-1764 699.956,-1764 603.956,-1764 603.956,-1764 597.956,-1764 591.956,-1758 591.956,-1752 591.956,-1752 591.956,-1650 591.956,-1650 591.956,-1644 597.956,-1638 603.956,-1638"/>
<text text-anchor="middle" x="651.956" y="-1751.2" font-family="Times,serif" font-size="11.00" fill="gray">DependencyInjection</text>
</g>
<g id="clust5" class="cluster"><title>cluster_\AppBundle\Form</title>
<path fill="none" stroke="gray" d="M561.956,-1260C561.956,-1260 741.956,-1260 741.956,-1260 747.956,-1260 753.956,-1266 753.956,-1272 753.956,-1272 753.956,-1618 753.956,-1618 753.956,-1624 747.956,-1630 741.956,-1630 741.956,-1630 561.956,-1630 561.956,-1630 555.956,-1630 549.956,-1624 549.956,-1618 549.956,-1618 549.956,-1272 549.956,-1272 549.956,-1266 555.956,-1260 561.956,-1260"/>
<text text-anchor="middle" x="651.956" y="-1617.2" font-family="Times,serif" font-size="11.00" fill="gray">Form</text>
</g>
<g id="clust6" class="cluster"><title>cluster_\AppBundle\Form\DataTransformer</title>
<path fill="none" stroke="gray" d="M569.956,-1476C569.956,-1476 733.956,-1476 733.956,-1476 739.956,-1476 745.956,-1482 745.956,-1488 745.956,-1488 745.956,-1590 745.956,-1590 745.956,-1596 739.956,-1602 733.956,-1602 733.956,-1602 569.956,-1602 569.956,-1602 563.956,-1602 557.956,-1596 557.956,-1590 557.956,-1590 557.956,-1488 557.956,-1488 557.956,-1482 563.956,-1476 569.956,-1476"/>
<text text-anchor="middle" x="651.956" y="-1589.2" font-family="Times,serif" font-size="11.00" fill="gray">DataTransformer</text>
</g>
<g id="clust7" class="cluster"><title>cluster_\AppBundle\Tests</title>
<path fill="none" stroke="gray" d="M568.956,-1090C568.956,-1090 734.956,-1090 734.956,-1090 740.956,-1090 746.956,-1096 746.956,-1102 746.956,-1102 746.956,-1240 746.956,-1240 746.956,-1246 740.956,-1252 734.956,-1252 734.956,-1252 568.956,-1252 568.956,-1252 562.956,-1252 556.956,-1246 556.956,-1240 556.956,-1240 556.956,-1102 556.956,-1102 556.956,-1096 562.956,-1090 568.956,-1090"/>
<text text-anchor="middle" x="651.956" y="-1239.2" font-family="Times,serif" font-size="11.00" fill="gray">Tests</text>
</g>
<g id="clust8" class="cluster"><title>cluster_\AppBundle\Tests\Controller</title>
<path fill="none" stroke="gray" d="M576.956,-1098C576.956,-1098 726.956,-1098 726.956,-1098 732.956,-1098 738.956,-1104 738.956,-1110 738.956,-1110 738.956,-1212 738.956,-1212 738.956,-1218 732.956,-1224 726.956,-1224 726.956,-1224 576.956,-1224 576.956,-1224 570.956,-1224 564.956,-1218 564.956,-1212 564.956,-1212 564.956,-1110 564.956,-1110 564.956,-1104 570.956,-1098 576.956,-1098"/>
<text text-anchor="middle" x="651.956" y="-1211.2" font-family="Times,serif" font-size="11.00" fill="gray">Controller</text>
</g>
<g id="clust9" class="cluster"><title>cluster_\AppBundle\Controller</title>
<path fill="none" stroke="gray" d="M586.956,-740C586.956,-740 716.956,-740 716.956,-740 722.956,-740 728.956,-746 728.956,-752 728.956,-752 728.956,-1070 728.956,-1070 728.956,-1076 722.956,-1082 716.956,-1082 716.956,-1082 586.956,-1082 586.956,-1082 580.956,-1082 574.956,-1076 574.956,-1070 574.956,-1070 574.956,-752 574.956,-752 574.956,-746 580.956,-740 586.956,-740"/>
<text text-anchor="middle" x="651.956" y="-1069.2" font-family="Times,serif" font-size="11.00" fill="gray">Controller</text>
</g>
<g id="clust10" class="cluster"><title>cluster_\AppBundle\Repository</title>
<path fill="none" stroke="gray" d="M586.956,-444C586.956,-444 716.956,-444 716.956,-444 722.956,-444 728.956,-450 728.956,-456 728.956,-456 728.956,-720 728.956,-720 728.956,-726 722.956,-732 716.956,-732 716.956,-732 586.956,-732 586.956,-732 580.956,-732 574.956,-726 574.956,-720 574.956,-720 574.956,-456 574.956,-456 574.956,-450 580.956,-444 586.956,-444"/>
<text text-anchor="middle" x="651.956" y="-719.2" font-family="Times,serif" font-size="11.00" fill="gray">Repository</text>
</g>
<g id="clust11" class="cluster"><title>cluster_\AppBundle\DataFixtures</title>
<path fill="none" stroke="gray" d="M585.456,-220C585.456,-220 718.456,-220 718.456,-220 724.456,-220 730.456,-226 730.456,-232 730.456,-232 730.456,-424 730.456,-424 730.456,-430 724.456,-436 718.456,-436 718.456,-436 585.456,-436 585.456,-436 579.456,-436 573.456,-430 573.456,-424 573.456,-424 573.456,-232 573.456,-232 573.456,-226 579.456,-220 585.456,-220"/>
<text text-anchor="middle" x="651.956" y="-423.2" font-family="Times,serif" font-size="11.00" fill="gray">DataFixtures</text>
</g>
<g id="clust12" class="cluster"><title>cluster_\AppBundle\DataFixtures\ORM</title>
<path fill="none" stroke="gray" d="M593.456,-228C593.456,-228 710.456,-228 710.456,-228 716.456,-228 722.456,-234 722.456,-240 722.456,-240 722.456,-396 722.456,-396 722.456,-402 716.456,-408 710.456,-408 710.456,-408 593.456,-408 593.456,-408 587.456,-408 581.456,-402 581.456,-396 581.456,-396 581.456,-240 581.456,-240 581.456,-234 587.456,-228 593.456,-228"/>
<text text-anchor="middle" x="651.956" y="-395.2" font-family="Times,serif" font-size="11.00" fill="gray">ORM</text>
</g>
<g id="clust13" class="cluster"><title>cluster_\FOS</title>
<path fill="none" stroke="gray" d="M574.456,-16C574.456,-16 729.456,-16 729.456,-16 735.456,-16 741.456,-22 741.456,-28 741.456,-28 741.456,-148 741.456,-148 741.456,-154 735.456,-160 729.456,-160 729.456,-160 574.456,-160 574.456,-160 568.456,-160 562.456,-154 562.456,-148 562.456,-148 562.456,-28 562.456,-28 562.456,-22 568.456,-16 574.456,-16"/>
<text text-anchor="middle" x="651.956" y="-147.2" font-family="Times,serif" font-size="11.00" fill="gray">FOS</text>
</g>
<g id="clust14" class="cluster"><title>cluster_\FOS\UserBundle</title>
<path fill="none" stroke="gray" d="M582.456,-24C582.456,-24 721.456,-24 721.456,-24 727.456,-24 733.456,-30 733.456,-36 733.456,-36 733.456,-120 733.456,-120 733.456,-126 727.456,-132 721.456,-132 721.456,-132 582.456,-132 582.456,-132 576.456,-132 570.456,-126 570.456,-120 570.456,-120 570.456,-36 570.456,-36 570.456,-30 576.456,-24 582.456,-24"/>
<text text-anchor="middle" x="651.956" y="-119.2" font-family="Times,serif" font-size="11.00" fill="gray">UserBundle</text>
</g>
<g id="clust15" class="cluster"><title>cluster_\FOS\UserBundle\Controller</title>
<path fill="none" stroke="gray" d="M590.456,-32C590.456,-32 713.456,-32 713.456,-32 719.456,-32 725.456,-38 725.456,-44 725.456,-44 725.456,-92 725.456,-92 725.456,-98 719.456,-104 713.456,-104 713.456,-104 590.456,-104 590.456,-104 584.456,-104 578.456,-98 578.456,-92 578.456,-92 578.456,-44 578.456,-44 578.456,-38 584.456,-32 590.456,-32"/>
<text text-anchor="middle" x="651.956" y="-91.2" font-family="Times,serif" font-size="11.00" fill="gray">Controller</text>
</g>
<!-- \\AppBundle\\Entity\\User -->
<g id="node1" class="node"><title>\\AppBundle\\Entity\\User</title>
<polygon fill="none" stroke="black" points="678.956,-2032 624.956,-2032 624.956,-1996 678.956,-1996 678.956,-2032"/>
<text text-anchor="middle" x="651.956" y="-2011.2" font-family="Courier,monospace" font-size="11.00">User</text>
</g>
<!-- \\FOS\\UserBundle\\Entity\\User -->
<g id="node32" class="node"><title>\\FOS\\UserBundle\\Entity\\User</title>
<ellipse fill="none" stroke="black" cx="246.978" cy="-2014" rx="116.18" ry="18"/>
<text text-anchor="middle" x="246.978" y="-2010.3" font-family="Times,serif" font-size="14.00" fill="gray">\FOS\UserBundle\Entity\User</text>
</g>
<!-- \\AppBundle\\Entity\\User&#45;&gt;\\FOS\\UserBundle\\Entity\\User -->
<g id="edge1" class="edge"><title>\\AppBundle\\Entity\\User&#45;&gt;\\FOS\\UserBundle\\Entity\\User</title>
<path fill="none" stroke="black" d="M624.826,-2014C574.865,-2014 462.844,-2014 373.847,-2014"/>
<polygon fill="none" stroke="black" points="373.665,-2010.5 363.665,-2014 373.665,-2017.5 373.665,-2010.5"/>
</g>
<!-- \\AppBundle\\Entity\\Category -->
<g id="node2" class="node"><title>\\AppBundle\\Entity\\Category</title>
<polygon fill="none" stroke="black" points="687.456,-1978 616.456,-1978 616.456,-1942 687.456,-1942 687.456,-1978"/>
<text text-anchor="middle" x="651.956" y="-1957.2" font-family="Courier,monospace" font-size="11.00">Category</text>
</g>
<!-- \\AppBundle\\Entity\\Tag -->
<g id="node3" class="node"><title>\\AppBundle\\Entity\\Tag</title>
<polygon fill="none" stroke="black" points="678.956,-1924 624.956,-1924 624.956,-1888 678.956,-1888 678.956,-1924"/>
<text text-anchor="middle" x="651.956" y="-1903.2" font-family="Courier,monospace" font-size="11.00">Tag</text>
</g>
<!-- \\AppBundle\\Entity\\Question -->
<g id="node4" class="node"><title>\\AppBundle\\Entity\\Question</title>
<polygon fill="none" stroke="black" points="687.456,-1870 616.456,-1870 616.456,-1834 687.456,-1834 687.456,-1870"/>
<text text-anchor="middle" x="651.956" y="-1849.2" font-family="Courier,monospace" font-size="11.00">Question</text>
</g>
<!-- \\AppBundle\\Entity\\Answer -->
<g id="node5" class="node"><title>\\AppBundle\\Entity\\Answer</title>
<polygon fill="none" stroke="black" points="680.456,-1816 623.456,-1816 623.456,-1780 680.456,-1780 680.456,-1816"/>
<text text-anchor="middle" x="651.956" y="-1795.2" font-family="Courier,monospace" font-size="11.00">Answer</text>
</g>
<!-- \\AppBundle\\DependencyInjection\\AppExtension -->
<g id="node6" class="node"><title>\\AppBundle\\DependencyInjection\\AppExtension</title>
<polygon fill="none" stroke="black" points="700.956,-1736 602.956,-1736 602.956,-1700 700.956,-1700 700.956,-1736"/>
<text text-anchor="middle" x="651.956" y="-1715.2" font-family="Courier,monospace" font-size="11.00">AppExtension</text>
</g>
<!-- \\Symfony\\Component\\HttpKernel\\DependencyInjection\\Extension -->
<g id="node33" class="node"><title>\\Symfony\\Component\\HttpKernel\\DependencyInjection\\Extension</title>
<ellipse fill="none" stroke="black" cx="246.978" cy="-1718" rx="246.956" ry="18"/>
<text text-anchor="middle" x="246.978" y="-1714.3" font-family="Times,serif" font-size="14.00" fill="gray">\Symfony\Component\HttpKernel\DependencyInjection\Extension</text>
</g>
<!-- \\AppBundle\\DependencyInjection\\AppExtension&#45;&gt;\\Symfony\\Component\\HttpKernel\\DependencyInjection\\Extension -->
<g id="edge2" class="edge"><title>\\AppBundle\\DependencyInjection\\AppExtension&#45;&gt;\\Symfony\\Component\\HttpKernel\\DependencyInjection\\Extension</title>
<path fill="none" stroke="black" d="M602.748,-1718C576.475,-1718 541.704,-1718 504.195,-1718"/>
<polygon fill="none" stroke="black" points="504.078,-1714.5 494.078,-1718 504.078,-1721.5 504.078,-1714.5"/>
</g>
<!-- \\AppBundle\\DependencyInjection\\Configuration -->
<g id="node7" class="node"><title>\\AppBundle\\DependencyInjection\\Configuration</title>
<polygon fill="none" stroke="black" points="703.956,-1682 599.956,-1682 599.956,-1646 703.956,-1646 703.956,-1682"/>
<text text-anchor="middle" x="651.956" y="-1661.2" font-family="Courier,monospace" font-size="11.00">Configuration</text>
</g>
<!-- \\Symfony\\Component\\Config\\Definition\\ConfigurationInterface -->
<g id="node41" class="node"><title>\\Symfony\\Component\\Config\\Definition\\ConfigurationInterface</title>
<ellipse fill="none" stroke="black" cx="246.978" cy="-1664" rx="237.758" ry="18"/>
<text text-anchor="middle" x="246.978" y="-1660.3" font-family="Times,serif" font-size="14.00" fill="gray">\Symfony\Component\Config\Definition\ConfigurationInterface</text>
</g>
<!-- \\AppBundle\\DependencyInjection\\Configuration&#45;&gt;\\Symfony\\Component\\Config\\Definition\\ConfigurationInterface -->
<g id="edge14" class="edge"><title>\\AppBundle\\DependencyInjection\\Configuration&#45;&gt;\\Symfony\\Component\\Config\\Definition\\ConfigurationInterface</title>
<path fill="none" stroke="black" stroke-dasharray="1,5" d="M599.919,-1664C571.901,-1664 534.867,-1664 495.346,-1664"/>
<polygon fill="none" stroke="black" points="495.248,-1660.5 485.248,-1664 495.248,-1667.5 495.248,-1660.5"/>
</g>
<!-- \\AppBundle\\Form\\DataTransformer\\CategoryDataTransformer -->
<g id="node8" class="node"><title>\\AppBundle\\Form\\DataTransformer\\CategoryDataTransformer</title>
<polygon fill="none" stroke="black" points="737.956,-1574 565.956,-1574 565.956,-1538 737.956,-1538 737.956,-1574"/>
<text text-anchor="middle" x="651.956" y="-1553.2" font-family="Courier,monospace" font-size="11.00">CategoryDataTransformer</text>
</g>
<!-- \\Symfony\\Component\\Form\\DataTransformerInterface -->
<g id="node43" class="node"><title>\\Symfony\\Component\\Form\\DataTransformerInterface</title>
<ellipse fill="none" stroke="black" cx="246.978" cy="-1529" rx="206.063" ry="18"/>
<text text-anchor="middle" x="246.978" y="-1525.3" font-family="Times,serif" font-size="14.00" fill="gray">\Symfony\Component\Form\DataTransformerInterface</text>
</g>
<!-- \\AppBundle\\Form\\DataTransformer\\CategoryDataTransformer&#45;&gt;\\Symfony\\Component\\Form\\DataTransformerInterface -->
<g id="edge19" class="edge"><title>\\AppBundle\\Form\\DataTransformer\\CategoryDataTransformer&#45;&gt;\\Symfony\\Component\\Form\\DataTransformerInterface</title>
<path fill="none" stroke="black" stroke-dasharray="1,5" d="M565.495,-1550.27C523.455,-1547.46 471.192,-1543.96 421.282,-1540.61"/>
<polygon fill="none" stroke="black" points="421.216,-1537.1 411.004,-1539.92 420.748,-1544.08 421.216,-1537.1"/>
</g>
<!-- \\AppBundle\\Form\\DataTransformer\\TagDataTransformer -->
<g id="node9" class="node"><title>\\AppBundle\\Form\\DataTransformer\\TagDataTransformer</title>
<polygon fill="none" stroke="black" points="720.956,-1520 582.956,-1520 582.956,-1484 720.956,-1484 720.956,-1520"/>
<text text-anchor="middle" x="651.956" y="-1499.2" font-family="Courier,monospace" font-size="11.00">TagDataTransformer</text>
</g>
<!-- \\AppBundle\\Form\\DataTransformer\\TagDataTransformer&#45;&gt;\\Symfony\\Component\\Form\\DataTransformerInterface -->
<g id="edge24" class="edge"><title>\\AppBundle\\Form\\DataTransformer\\TagDataTransformer&#45;&gt;\\Symfony\\Component\\Form\\DataTransformerInterface</title>
<path fill="none" stroke="black" stroke-dasharray="1,5" d="M582.596,-1506.58C538.217,-1509.55 478.241,-1513.57 421.322,-1517.39"/>
<polygon fill="none" stroke="black" points="420.85,-1513.91 411.106,-1518.07 421.318,-1520.89 420.85,-1513.91"/>
</g>
<!-- \\AppBundle\\Form\\QuestionType -->
<g id="node10" class="node"><title>\\AppBundle\\Form\\QuestionType</title>
<polygon fill="none" stroke="black" points="700.956,-1466 602.956,-1466 602.956,-1430 700.956,-1430 700.956,-1466"/>
<text text-anchor="middle" x="651.956" y="-1445.2" font-family="Courier,monospace" font-size="11.00">QuestionType</text>
</g>
<!-- \\Symfony\\Component\\Form\\AbstractType -->
<g id="node34" class="node"><title>\\Symfony\\Component\\Form\\AbstractType</title>
<ellipse fill="none" stroke="black" cx="246.978" cy="-1367" rx="161.671" ry="18"/>
<text text-anchor="middle" x="246.978" y="-1363.3" font-family="Times,serif" font-size="14.00" fill="gray">\Symfony\Component\Form\AbstractType</text>
</g>
<!-- \\AppBundle\\Form\\QuestionType&#45;&gt;\\Symfony\\Component\\Form\\AbstractType -->
<g id="edge3" class="edge"><title>\\AppBundle\\Form\\QuestionType&#45;&gt;\\Symfony\\Component\\Form\\AbstractType</title>
<path fill="none" stroke="black" d="M602.748,-1438.31C537.068,-1425.11 418.285,-1401.23 336.377,-1384.77"/>
<polygon fill="none" stroke="black" points="336.821,-1381.29 326.327,-1382.75 335.442,-1388.15 336.821,-1381.29"/>
</g>
<!-- \\AppBundle\\Form\\CategoryType -->
<g id="node11" class="node"><title>\\AppBundle\\Form\\CategoryType</title>
<polygon fill="none" stroke="black" points="700.956,-1412 602.956,-1412 602.956,-1376 700.956,-1376 700.956,-1412"/>
<text text-anchor="middle" x="651.956" y="-1391.2" font-family="Courier,monospace" font-size="11.00">CategoryType</text>
</g>
<!-- \\AppBundle\\Form\\CategoryType&#45;&gt;\\Symfony\\Component\\Form\\AbstractType -->
<g id="edge10" class="edge"><title>\\AppBundle\\Form\\CategoryType&#45;&gt;\\Symfony\\Component\\Form\\AbstractType</title>
<path fill="none" stroke="black" d="M602.748,-1390.77C551.868,-1387.36 469.121,-1381.82 396.335,-1376.94"/>
<polygon fill="none" stroke="black" points="396.347,-1373.43 386.135,-1376.26 395.879,-1380.42 396.347,-1373.43"/>
</g>
<!-- \\AppBundle\\Form\\TagType -->
<g id="node12" class="node"><title>\\AppBundle\\Form\\TagType</title>
<polygon fill="none" stroke="black" points="683.956,-1358 619.956,-1358 619.956,-1322 683.956,-1322 683.956,-1358"/>
<text text-anchor="middle" x="651.956" y="-1337.2" font-family="Courier,monospace" font-size="11.00">TagType</text>
</g>
<!-- \\AppBundle\\Form\\TagType&#45;&gt;\\Symfony\\Component\\Form\\AbstractType -->
<g id="edge11" class="edge"><title>\\AppBundle\\Form\\TagType&#45;&gt;\\Symfony\\Component\\Form\\AbstractType</title>
<path fill="none" stroke="black" d="M619.67,-1342.1C571.966,-1345.29 477.976,-1351.59 396.452,-1357.05"/>
<polygon fill="none" stroke="black" points="395.808,-1353.59 386.065,-1357.75 396.276,-1360.57 395.808,-1353.59"/>
</g>
<!-- \\AppBundle\\Form\\AnswerType -->
<g id="node13" class="node"><title>\\AppBundle\\Form\\AnswerType</title>
<polygon fill="none" stroke="black" points="693.956,-1304 609.956,-1304 609.956,-1268 693.956,-1268 693.956,-1304"/>
<text text-anchor="middle" x="651.956" y="-1283.2" font-family="Courier,monospace" font-size="11.00">AnswerType</text>
</g>
<!-- \\AppBundle\\Form\\AnswerType&#45;&gt;\\Symfony\\Component\\Form\\AbstractType -->
<g id="edge13" class="edge"><title>\\AppBundle\\Form\\AnswerType&#45;&gt;\\Symfony\\Component\\Form\\AbstractType</title>
<path fill="none" stroke="black" d="M609.724,-1294.29C545.759,-1307.14 421.154,-1332.19 336.254,-1349.26"/>
<polygon fill="none" stroke="black" points="335.476,-1345.84 326.362,-1351.24 336.856,-1352.71 335.476,-1345.84"/>
</g>
<!-- \\AppBundle\\Tests\\Controller\\DefaultControllerTest -->
<g id="node14" class="node"><title>\\AppBundle\\Tests\\Controller\\DefaultControllerTest</title>
<polygon fill="none" stroke="black" points="730.956,-1196 572.956,-1196 572.956,-1160 730.956,-1160 730.956,-1196"/>
<text text-anchor="middle" x="651.956" y="-1175.2" font-family="Courier,monospace" font-size="11.00">DefaultControllerTest</text>
</g>
<!-- \\Symfony\\Bundle\\FrameworkBundle\\Test\\WebTestCase -->
<g id="node36" class="node"><title>\\Symfony\\Bundle\\FrameworkBundle\\Test\\WebTestCase</title>
<ellipse fill="none" stroke="black" cx="246.978" cy="-1151" rx="211.762" ry="18"/>
<text text-anchor="middle" x="246.978" y="-1147.3" font-family="Times,serif" font-size="14.00" fill="gray">\Symfony\Bundle\FrameworkBundle\Test\WebTestCase</text>
</g>
<!-- \\AppBundle\\Tests\\Controller\\DefaultControllerTest&#45;&gt;\\Symfony\\Bundle\\FrameworkBundle\\Test\\WebTestCase -->
<g id="edge5" class="edge"><title>\\AppBundle\\Tests\\Controller\\DefaultControllerTest&#45;&gt;\\Symfony\\Bundle\\FrameworkBundle\\Test\\WebTestCase</title>
<path fill="none" stroke="black" d="M572.78,-1172.76C530.313,-1169.92 475.97,-1166.28 423.936,-1162.79"/>
<polygon fill="none" stroke="black" points="424.12,-1159.29 413.908,-1162.12 423.652,-1166.28 424.12,-1159.29"/>
</g>
<!-- \\AppBundle\\Tests\\Controller\\AuthControllerTest -->
<g id="node15" class="node"><title>\\AppBundle\\Tests\\Controller\\AuthControllerTest</title>
<polygon fill="none" stroke="black" points="720.956,-1142 582.956,-1142 582.956,-1106 720.956,-1106 720.956,-1142"/>
<text text-anchor="middle" x="651.956" y="-1121.2" font-family="Courier,monospace" font-size="11.00">AuthControllerTest</text>
</g>
<!-- \\AppBundle\\Tests\\Controller\\AuthControllerTest&#45;&gt;\\Symfony\\Bundle\\FrameworkBundle\\Test\\WebTestCase -->
<g id="edge7" class="edge"><title>\\AppBundle\\Tests\\Controller\\AuthControllerTest&#45;&gt;\\Symfony\\Bundle\\FrameworkBundle\\Test\\WebTestCase</title>
<path fill="none" stroke="black" d="M582.596,-1128.58C538.958,-1131.5 480.241,-1135.44 424.177,-1139.19"/>
<polygon fill="none" stroke="black" points="423.855,-1135.71 414.111,-1139.87 424.323,-1142.69 423.855,-1135.71"/>
</g>
<!-- \\AppBundle\\Controller\\AuthController -->
<g id="node16" class="node"><title>\\AppBundle\\Controller\\AuthController</title>
<polygon fill="none" stroke="black" points="707.456,-1054 596.456,-1054 596.456,-1018 707.456,-1018 707.456,-1054"/>
<text text-anchor="middle" x="651.956" y="-1033.2" font-family="Courier,monospace" font-size="11.00">AuthController</text>
</g>
<!-- \\FOS\\UserBundle\\Controller\\SecurityController -->
<g id="node37" class="node"><title>\\FOS\\UserBundle\\Controller\\SecurityController</title>
<ellipse fill="none" stroke="black" cx="246.978" cy="-1036" rx="180.068" ry="18"/>
<text text-anchor="middle" x="246.978" y="-1032.3" font-family="Times,serif" font-size="14.00" fill="gray">\FOS\UserBundle\Controller\SecurityController</text>
</g>
<!-- \\AppBundle\\Controller\\AuthController&#45;&gt;\\FOS\\UserBundle\\Controller\\SecurityController -->
<g id="edge6" class="edge"><title>\\AppBundle\\Controller\\AuthController&#45;&gt;\\FOS\\UserBundle\\Controller\\SecurityController</title>
<path fill="none" stroke="black" d="M596.189,-1036C554.791,-1036 495.345,-1036 437.257,-1036"/>
<polygon fill="none" stroke="black" points="437.193,-1032.5 427.193,-1036 437.193,-1039.5 437.193,-1032.5"/>
</g>
<!-- \\AppBundle\\Controller\\DefaultController -->
<g id="node17" class="node"><title>\\AppBundle\\Controller\\DefaultController</title>
<polygon fill="none" stroke="black" points="717.456,-1000 586.456,-1000 586.456,-964 717.456,-964 717.456,-1000"/>
<text text-anchor="middle" x="651.956" y="-979.2" font-family="Courier,monospace" font-size="11.00">DefaultController</text>
</g>
<!-- \\Symfony\\Bundle\\FrameworkBundle\\Controller\\Controller -->
<g id="node38" class="node"><title>\\Symfony\\Bundle\\FrameworkBundle\\Controller\\Controller</title>
<ellipse fill="none" stroke="black" cx="246.978" cy="-982" rx="219.861" ry="18"/>
<text text-anchor="middle" x="246.978" y="-978.3" font-family="Times,serif" font-size="14.00" fill="gray">\Symfony\Bundle\FrameworkBundle\Controller\Controller</text>
</g>
<!-- \\AppBundle\\Controller\\DefaultController&#45;&gt;\\Symfony\\Bundle\\FrameworkBundle\\Controller\\Controller -->
<g id="edge8" class="edge"><title>\\AppBundle\\Controller\\DefaultController&#45;&gt;\\Symfony\\Bundle\\FrameworkBundle\\Controller\\Controller</title>
<path fill="none" stroke="black" d="M586.211,-982C555.65,-982 517.143,-982 477.153,-982"/>
<polygon fill="none" stroke="black" points="476.958,-978.5 466.958,-982 476.958,-985.5 476.958,-978.5"/>
</g>
<!-- \\AppBundle\\Controller\\AnswerController -->
<g id="node18" class="node"><title>\\AppBundle\\Controller\\AnswerController</title>
<polygon fill="none" stroke="black" points="714.456,-946 589.456,-946 589.456,-910 714.456,-910 714.456,-946"/>
<text text-anchor="middle" x="651.956" y="-925.2" font-family="Courier,monospace" font-size="11.00">AnswerController</text>
</g>
<!-- \\AppBundle\\Controller\\TagsController -->
<g id="node19" class="node"><title>\\AppBundle\\Controller\\TagsController</title>
<polygon fill="none" stroke="black" points="707.456,-892 596.456,-892 596.456,-856 707.456,-856 707.456,-892"/>
<text text-anchor="middle" x="651.956" y="-871.2" font-family="Courier,monospace" font-size="11.00">TagsController</text>
</g>
<!-- \\AppBundle\\Controller\\CategoryController -->
<g id="node20" class="node"><title>\\AppBundle\\Controller\\CategoryController</title>
<polygon fill="none" stroke="black" points="720.956,-838 582.956,-838 582.956,-802 720.956,-802 720.956,-838"/>
<text text-anchor="middle" x="651.956" y="-817.2" font-family="Courier,monospace" font-size="11.00">CategoryController</text>
</g>
<!-- \\AppBundle\\Controller\\QuestionController -->
<g id="node21" class="node"><title>\\AppBundle\\Controller\\QuestionController</title>
<polygon fill="none" stroke="black" points="720.956,-784 582.956,-784 582.956,-748 720.956,-748 720.956,-784"/>
<text text-anchor="middle" x="651.956" y="-763.2" font-family="Courier,monospace" font-size="11.00">QuestionController</text>
</g>
<!-- \\AppBundle\\Repository\\TagRepository -->
<g id="node22" class="node"><title>\\AppBundle\\Repository\\TagRepository</title>
<polygon fill="none" stroke="black" points="703.956,-650 599.956,-650 599.956,-614 703.956,-614 703.956,-650"/>
<text text-anchor="middle" x="651.956" y="-629.2" font-family="Courier,monospace" font-size="11.00">TagRepository</text>
</g>
<!-- \\Doctrine\\ORM\\EntityRepository -->
<g id="node39" class="node"><title>\\Doctrine\\ORM\\EntityRepository</title>
<ellipse fill="none" stroke="black" cx="246.978" cy="-578" rx="129.177" ry="18"/>
<text text-anchor="middle" x="246.978" y="-574.3" font-family="Times,serif" font-size="14.00" fill="gray">\Doctrine\ORM\EntityRepository</text>
</g>
<!-- \\AppBundle\\Repository\\TagRepository&#45;&gt;\\Doctrine\\ORM\\EntityRepository -->
<g id="edge9" class="edge"><title>\\AppBundle\\Repository\\TagRepository&#45;&gt;\\Doctrine\\ORM\\EntityRepository</title>
<path fill="none" stroke="black" d="M599.919,-625.161C537.566,-616.806 430.554,-602.466 350.859,-591.786"/>
<polygon fill="none" stroke="black" points="351.165,-588.296 340.789,-590.437 350.236,-595.234 351.165,-588.296"/>
</g>
<!-- \\AppBundle\\Repository\\CategoryRepository -->
<g id="node23" class="node"><title>\\AppBundle\\Repository\\CategoryRepository</title>
<polygon fill="none" stroke="black" points="720.956,-596 582.956,-596 582.956,-560 720.956,-560 720.956,-596"/>
<text text-anchor="middle" x="651.956" y="-575.2" font-family="Courier,monospace" font-size="11.00">CategoryRepository</text>
</g>
<!-- \\AppBundle\\Repository\\CategoryRepository&#45;&gt;\\Doctrine\\ORM\\EntityRepository -->
<g id="edge15" class="edge"><title>\\AppBundle\\Repository\\CategoryRepository&#45;&gt;\\Doctrine\\ORM\\EntityRepository</title>
<path fill="none" stroke="black" d="M582.596,-578C529.092,-578 452.919,-578 386.763,-578"/>
<polygon fill="none" stroke="black" points="386.658,-574.5 376.658,-578 386.658,-581.5 386.658,-574.5"/>
</g>
<!-- \\AppBundle\\Repository\\QuestionRepository -->
<g id="node24" class="node"><title>\\AppBundle\\Repository\\QuestionRepository</title>
<polygon fill="none" stroke="black" points="720.956,-542 582.956,-542 582.956,-506 720.956,-506 720.956,-542"/>
<text text-anchor="middle" x="651.956" y="-521.2" font-family="Courier,monospace" font-size="11.00">QuestionRepository</text>
</g>
<!-- \\AppBundle\\Repository\\QuestionRepository&#45;&gt;\\Doctrine\\ORM\\EntityRepository -->
<g id="edge16" class="edge"><title>\\AppBundle\\Repository\\QuestionRepository&#45;&gt;\\Doctrine\\ORM\\EntityRepository</title>
<path fill="none" stroke="black" d="M582.596,-533.16C519.114,-541.667 423.72,-554.45 351.007,-564.194"/>
<polygon fill="none" stroke="black" points="350.35,-560.751 340.904,-565.548 351.28,-567.689 350.35,-560.751"/>
</g>
<!-- \\AppBundle\\Repository\\UserRepository -->
<g id="node25" class="node"><title>\\AppBundle\\Repository\\UserRepository</title>
<polygon fill="none" stroke="black" points="707.456,-488 596.456,-488 596.456,-452 707.456,-452 707.456,-488"/>
<text text-anchor="middle" x="651.956" y="-467.2" font-family="Courier,monospace" font-size="11.00">UserRepository</text>
</g>
<!-- \\AppBundle\\Repository\\UserRepository&#45;&gt;\\Doctrine\\ORM\\EntityRepository -->
<g id="edge21" class="edge"><title>\\AppBundle\\Repository\\UserRepository&#45;&gt;\\Doctrine\\ORM\\EntityRepository</title>
<path fill="none" stroke="black" d="M596.355,-482.015C576.64,-486.507 554.248,-491.788 533.956,-497 457.417,-516.658 370.113,-541.783 312.313,-558.799"/>
<polygon fill="none" stroke="black" points="311.186,-555.482 302.585,-561.669 313.167,-562.196 311.186,-555.482"/>
</g>
<!-- \\Symfony\\Component\\Security\\Core\\User\\UserProviderInterface -->
<g id="node44" class="node"><title>\\Symfony\\Component\\Security\\Core\\User\\UserProviderInterface</title>
<ellipse fill="none" stroke="black" cx="246.978" cy="-470" rx="240.457" ry="18"/>
<text text-anchor="middle" x="246.978" y="-466.3" font-family="Times,serif" font-size="14.00" fill="gray">\Symfony\Component\Security\Core\User\UserProviderInterface</text>
</g>
<!-- \\AppBundle\\Repository\\UserRepository&#45;&gt;\\Symfony\\Component\\Security\\Core\\User\\UserProviderInterface -->
<g id="edge22" class="edge"><title>\\AppBundle\\Repository\\UserRepository&#45;&gt;\\Symfony\\Component\\Security\\Core\\User\\UserProviderInterface</title>
<path fill="none" stroke="black" stroke-dasharray="1,5" d="M596.189,-470C569.339,-470 534.897,-470 498.157,-470"/>
<polygon fill="none" stroke="black" points="497.738,-466.5 487.738,-470 497.738,-473.5 497.738,-466.5"/>
</g>
<!-- \\AppBundle\\Repository\\AnswerRepository -->
<g id="node26" class="node"><title>\\AppBundle\\Repository\\AnswerRepository</title>
<polygon fill="none" stroke="black" points="714.456,-704 589.456,-704 589.456,-668 714.456,-668 714.456,-704"/>
<text text-anchor="middle" x="651.956" y="-683.2" font-family="Courier,monospace" font-size="11.00">AnswerRepository</text>
</g>
<!-- \\AppBundle\\Repository\\AnswerRepository&#45;&gt;\\Doctrine\\ORM\\EntityRepository -->
<g id="edge23" class="edge"><title>\\AppBundle\\Repository\\AnswerRepository&#45;&gt;\\Doctrine\\ORM\\EntityRepository</title>
<path fill="none" stroke="black" d="M589.186,-672.344C571.322,-668.233 551.825,-663.589 533.956,-659 457.417,-639.342 370.113,-614.217 312.313,-597.201"/>
<polygon fill="none" stroke="black" points="313.167,-593.804 302.585,-594.331 311.186,-600.518 313.167,-593.804"/>
</g>
<!-- \\AppBundle\\DataFixtures\\ORM\\LoadTagData -->
<g id="node27" class="node"><title>\\AppBundle\\DataFixtures\\ORM\\LoadTagData</title>
<polygon fill="none" stroke="black" points="697.456,-380 606.456,-380 606.456,-344 697.456,-344 697.456,-380"/>
<text text-anchor="middle" x="651.956" y="-359.2" font-family="Courier,monospace" font-size="11.00">LoadTagData</text>
</g>
<!-- \\Doctrine\\Common\\DataFixtures\\FixtureInterface -->
<g id="node40" class="node"><title>\\Doctrine\\Common\\DataFixtures\\FixtureInterface</title>
<ellipse fill="none" stroke="black" cx="246.978" cy="-308" rx="186.567" ry="18"/>
<text text-anchor="middle" x="246.978" y="-304.3" font-family="Times,serif" font-size="14.00" fill="gray">\Doctrine\Common\DataFixtures\FixtureInterface</text>
</g>
<!-- \\AppBundle\\DataFixtures\\ORM\\LoadTagData&#45;&gt;\\Doctrine\\Common\\DataFixtures\\FixtureInterface -->
<g id="edge12" class="edge"><title>\\AppBundle\\DataFixtures\\ORM\\LoadTagData&#45;&gt;\\Doctrine\\Common\\DataFixtures\\FixtureInterface</title>
<path fill="none" stroke="black" stroke-dasharray="1,5" d="M606.291,-356.015C549.006,-348.338 447.462,-334.731 367.065,-323.958"/>
<polygon fill="none" stroke="black" points="367.246,-320.451 356.87,-322.592 366.317,-327.389 367.246,-320.451"/>
</g>
<!-- \\AppBundle\\DataFixtures\\ORM\\LoadAnswerData -->
<g id="node28" class="node"><title>\\AppBundle\\DataFixtures\\ORM\\LoadAnswerData</title>
<polygon fill="none" stroke="black" points="707.456,-326 596.456,-326 596.456,-290 707.456,-290 707.456,-326"/>
<text text-anchor="middle" x="651.956" y="-305.2" font-family="Courier,monospace" font-size="11.00">LoadAnswerData</text>
</g>
<!-- \\AppBundle\\DataFixtures\\ORM\\LoadAnswerData&#45;&gt;\\Doctrine\\Common\\DataFixtures\\FixtureInterface -->
<g id="edge17" class="edge"><title>\\AppBundle\\DataFixtures\\ORM\\LoadAnswerData&#45;&gt;\\Doctrine\\Common\\DataFixtures\\FixtureInterface</title>
<path fill="none" stroke="black" stroke-dasharray="1,5" d="M596.189,-308C556.298,-308 499.648,-308 443.604,-308"/>
<polygon fill="none" stroke="black" points="443.519,-304.5 433.519,-308 443.519,-311.5 443.519,-304.5"/>
</g>
<!-- \\AppBundle\\DataFixtures\\ORM\\LoadQuestionData -->
<g id="node29" class="node"><title>\\AppBundle\\DataFixtures\\ORM\\LoadQuestionData</title>
<polygon fill="none" stroke="black" points="714.456,-272 589.456,-272 589.456,-236 714.456,-236 714.456,-272"/>
<text text-anchor="middle" x="651.956" y="-251.2" font-family="Courier,monospace" font-size="11.00">LoadQuestionData</text>
</g>
<!-- \\AppBundle\\DataFixtures\\ORM\\LoadQuestionData&#45;&gt;\\Doctrine\\Common\\DataFixtures\\FixtureInterface -->
<g id="edge20" class="edge"><title>\\AppBundle\\DataFixtures\\ORM\\LoadQuestionData&#45;&gt;\\Doctrine\\Common\\DataFixtures\\FixtureInterface</title>
<path fill="none" stroke="black" stroke-dasharray="1,5" d="M589.314,-262.26C530.352,-270.161 439.865,-282.287 366.868,-292.068"/>
<polygon fill="none" stroke="black" points="366.136,-288.635 356.69,-293.432 367.066,-295.573 366.136,-288.635"/>
</g>
<!-- \\AppBundle\\AppBundle -->
<g id="node30" class="node"><title>\\AppBundle\\AppBundle</title>
<polygon fill="none" stroke="black" points="690.456,-212 613.456,-212 613.456,-176 690.456,-176 690.456,-212"/>
<text text-anchor="middle" x="651.956" y="-191.2" font-family="Courier,monospace" font-size="11.00">AppBundle</text>
</g>
<!-- \\Symfony\\Component\\HttpKernel\\Bundle\\Bundle -->
<g id="node42" class="node"><title>\\Symfony\\Component\\HttpKernel\\Bundle\\Bundle</title>
<ellipse fill="none" stroke="black" cx="246.978" cy="-194" rx="187.367" ry="18"/>
<text text-anchor="middle" x="246.978" y="-190.3" font-family="Times,serif" font-size="14.00" fill="gray">\Symfony\Component\HttpKernel\Bundle\Bundle</text>
</g>
<!-- \\AppBundle\\AppBundle&#45;&gt;\\Symfony\\Component\\HttpKernel\\Bundle\\Bundle -->
<g id="edge18" class="edge"><title>\\AppBundle\\AppBundle&#45;&gt;\\Symfony\\Component\\HttpKernel\\Bundle\\Bundle</title>
<path fill="none" stroke="black" d="M613.407,-194C573.995,-194 508.92,-194 444.519,-194"/>
<polygon fill="none" stroke="black" points="444.193,-190.5 434.193,-194 444.193,-197.5 444.193,-190.5"/>
</g>
<!-- \\FOS\\UserBundle\\Controller\\ProfileController -->
<g id="node31" class="node"><title>\\FOS\\UserBundle\\Controller\\ProfileController</title>
<polygon fill="none" stroke="black" points="717.456,-76 586.456,-76 586.456,-40 717.456,-40 717.456,-76"/>
<text text-anchor="middle" x="651.956" y="-55.2" font-family="Courier,monospace" font-size="11.00">ProfileController</text>
</g>
<!-- \\Symfony\\Component\\DependencyInjection\\ContainerAware -->
<g id="node35" class="node"><title>\\Symfony\\Component\\DependencyInjection\\ContainerAware</title>
<ellipse fill="none" stroke="black" cx="246.978" cy="-58" rx="227.46" ry="18"/>
<text text-anchor="middle" x="246.978" y="-54.3" font-family="Times,serif" font-size="14.00" fill="gray">\Symfony\Component\DependencyInjection\ContainerAware</text>
</g>
<!-- \\FOS\\UserBundle\\Controller\\ProfileController&#45;&gt;\\Symfony\\Component\\DependencyInjection\\ContainerAware -->
<g id="edge4" class="edge"><title>\\FOS\\UserBundle\\Controller\\ProfileController&#45;&gt;\\Symfony\\Component\\DependencyInjection\\ContainerAware</title>
<path fill="none" stroke="black" d="M586.211,-58C557.618,-58 522.069,-58 484.857,-58"/>
<polygon fill="none" stroke="black" points="484.845,-54.5001 474.845,-58 484.845,-61.5001 484.845,-54.5001"/>
</g>
</g>
</svg>
